{
	"A": {
		"price": 50,
		"special_price": [3, 130]
	},
	"B": {
		"price": 30,
		"special_price": [2, 45]
	},
	"C": {
		"price": 20,
		"special_price": []
	},
	"D": {
		"price": 15,
		"special_price": []
	}
}